%YAML 1.1
%TAG !u! tag:unity3d.com,2011:
--- !u!114 &-4141591980040903883
MonoBehaviour:
  m_ObjectHideFlags: 11
  m_CorrespondingSourceObject: {fileID: 0}
  m_PrefabInstance: {fileID: 0}
  m_PrefabAsset: {fileID: 0}
  m_GameObject: {fileID: 0}
  m_Enabled: 1
  m_EditorHideFlags: 0
  m_Script: {fileID: 11500000, guid: d0353a89b1f911e48b9e16bdc9f2e058, type: 3}
  m_Name: 
  m_EditorClassIdentifier: 
  version: 5
--- !u!21 &2100000
Material:
  serializedVersion: 8
  m_ObjectHideFlags: 0
  m_CorrespondingSourceObject: {fileID: 0}
  m_PrefabInstance: {fileID: 0}
  m_PrefabAsset: {fileID: 0}
  m_Name: Shader Graphs_Agua
  m_Shader: {fileID: -6465566751694194690, guid: c3456ff259f302b4d8e6770075371628,
    type: 3}
  m_ValidKeywords: []
  m_InvalidKeywords: []
  m_LightmapFlags: 2
  m_EnableInstancingVariants: 0
  m_DoubleSidedGI: 0
  m_CustomRenderQueue: -1
  stringTagMap: {}
  disabledShaderPasses: []
  m_SavedProperties:
    serializedVersion: 3
    m_TexEnvs:
    - unity_Lightmaps:
        m_Texture: {fileID: 0}
        m_Scale: {x: 1, y: 1}
        m_Offset: {x: 0, y: 0}
    - unity_LightmapsInd:
        m_Texture: {fileID: 0}
        m_Scale: {x: 1, y: 1}
        m_Offset: {x: 0, y: 0}
    - unity_ShadowMasks:
        m_Texture: {fileID: 0}
        m_Scale: {x: 1, y: 1}
        m_Offset: {x: 0, y: 0}
    m_Ints: []
    m_Floats:
    - _CantidadEspuma: 0.04
    - _CortarEspuma: 0
    - _DelgadezDeOndas: 10
    - _DensidadDeOndas: 5.5
    - _EscalaEspuma: 30
    - _EscalaOla: 3.24
    - _QueueControl: 0
    - _QueueOffset: 0
    - _VelocidadDeOndas: 3.42
    - _VelocidadEspuma: 0.5
    - _VelocidadOla: 0.1
    m_Colors:
    - _BaseColor: {r: 0.47614807, g: 0.78961825, b: 0.9433962, a: 0}
    - _EspumaColor: {r: 3.372549, g: 3.372549, b: 3.372549, a: 1}
    - _OndaColor: {r: 0.5, g: 0.8606563, b: 2, a: 0}
  m_BuildTextureStacks: []
